%YAML 1.1
%TAG !u! tag:unity3d.com,2011:
--- !u!114 &11400000
MonoBehaviour:
  m_ObjectHideFlags: 0
  m_CorrespondingSourceObject: {fileID: 0}
  m_PrefabInstance: {fileID: 0}
  m_PrefabAsset: {fileID: 0}
  m_GameObject: {fileID: 0}
  m_Enabled: 1
  m_EditorHideFlags: 0
  m_Script: {fileID: 11500000, guid: 95e66c6366d904e98bc83428217d4fd7, type: 3}
  m_Name: CapsuleMovement
  m_EditorClassIdentifier: 
  _data:
    _json: '{"graph":{"variables":{"Kind":"Flow","collection":{"$content":[],"$version":"A"},"$version":"A"},"controlInputDefinitions":[],"controlOutputDefinitions":[],"valueInputDefinitions":[],"valueOutputDefinitions":[],"title":"TransformMovement","summary":null,"pan":{"x":1.300262,"y":36.69183},"zoom":1.0,"elements":[{"coroutine":false,"defaultValues":{},"position":{"x":-225.0,"y":-153.0},"guid":"c00be9f9-8867-4ef2-98a6-76f7fa4812d3","$version":"A","$type":"Unity.VisualScripting.Update","$id":"9"},{"specifyFallback":false,"kind":"Object","defaultValues":{"name":{"$content":"MoveAxis","$type":"System.String"},"object":null},"position":{"x":-238.0,"y":-26.0},"guid":"05a739dc-3e26-4c93-9048-7b0dad47c8e1","$version":"A","$type":"Unity.VisualScripting.GetVariable","$id":"11"},{"specifyFallback":false,"kind":"Object","defaultValues":{"name":{"$content":"MoveSpeed","$type":"System.String"},"object":null},"position":{"x":-297.0,"y":123.0},"guid":"b4609252-134d-4a9a-8a12-1223c9d1bd26","$version":"A","$type":"Unity.VisualScripting.GetVariable","$id":"13"},{"member":{"name":"deltaTime","parameterTypes":null,"targetType":"UnityEngine.Time","targetTypeName":"UnityEngine.Time","$version":"A"},"defaultValues":{},"position":{"x":-299.0,"y":279.0},"guid":"5e66cdfb-7af0-4f1e-bfa7-657f66e9090d","$version":"A","$type":"Unity.VisualScripting.GetMember","$id":"15"},{"chainable":false,"member":{"name":"Translate","parameterTypes":["UnityEngine.Vector3"],"targetType":"UnityEngine.Transform","targetTypeName":"UnityEngine.Transform","$version":"A"},"defaultValues":{"target":null,"%translation":{"x":0.0,"y":0.0,"z":0.0,"$type":"UnityEngine.Vector3"}},"position":{"x":407.0,"y":-49.0},"guid":"404ad45d-f692-4e92-ac6c-ff29e3e7a916","$version":"A","$type":"Unity.VisualScripting.InvokeMember","$id":"18"},{"chainable":false,"member":{"name":"ClampMagnitude","parameterTypes":["UnityEngine.Vector3","System.Single"],"targetType":"UnityEngine.Vector3","targetTypeName":"UnityEngine.Vector3","$version":"A"},"defaultValues":{"%vector":{"x":0.0,"y":0.0,"z":0.0,"$type":"UnityEngine.Vector3"},"%maxLength":{"$content":1.0,"$type":"System.Single"}},"position":{"x":25.0,"y":-86.0},"guid":"fccf4bdd-28ce-4efc-bd4f-35f92114f261","$version":"A","$type":"Unity.VisualScripting.InvokeMember","$id":"21"},{"defaultValues":{},"position":{"x":244.0,"y":61.0},"guid":"969716f6-6f9f-4241-8255-44687e60f882","$version":"A","$type":"Unity.VisualScripting.GenericMultiply","$id":"24"},{"defaultValues":{},"position":{"x":54.0,"y":122.0},"guid":"5d4f89a5-9f43-4000-bf8c-a8d26761d841","$version":"A","$type":"Unity.VisualScripting.GenericMultiply","$id":"26"},{"sourceUnit":{"$ref":"9"},"sourceKey":"trigger","destinationUnit":{"$ref":"21"},"destinationKey":"enter","guid":"2f91052e-735b-4175-9495-aff2359b5e1c","$type":"Unity.VisualScripting.ControlConnection"},{"sourceUnit":{"$ref":"21"},"sourceKey":"exit","destinationUnit":{"$ref":"18"},"destinationKey":"enter","guid":"55bda767-2746-40a4-b4a2-935e434c5178","$type":"Unity.VisualScripting.ControlConnection"},{"sourceUnit":{"$ref":"11"},"sourceKey":"value","destinationUnit":{"$ref":"21"},"destinationKey":"%vector","guid":"7acd680b-ea5b-4e78-a6b7-0c25d8e531a8","$type":"Unity.VisualScripting.ValueConnection"},{"sourceUnit":{"$ref":"21"},"sourceKey":"result","destinationUnit":{"$ref":"24"},"destinationKey":"a","guid":"20e5d0ed-77b1-427c-ad6c-9667ced81c77","$type":"Unity.VisualScripting.ValueConnection"},{"sourceUnit":{"$ref":"24"},"sourceKey":"product","destinationUnit":{"$ref":"18"},"destinationKey":"%translation","guid":"f62cb24f-764d-4427-8d93-ff83c0089efd","$type":"Unity.VisualScripting.ValueConnection"},{"sourceUnit":{"$ref":"26"},"sourceKey":"product","destinationUnit":{"$ref":"24"},"destinationKey":"b","guid":"7853fa38-d48f-4379-95f9-d4b4779661f2","$type":"Unity.VisualScripting.ValueConnection"},{"sourceUnit":{"$ref":"13"},"sourceKey":"value","destinationUnit":{"$ref":"26"},"destinationKey":"a","guid":"b9d2f973-bd09-46a4-914b-0e070b7136e5","$type":"Unity.VisualScripting.ValueConnection"},{"sourceUnit":{"$ref":"15"},"sourceKey":"value","destinationUnit":{"$ref":"26"},"destinationKey":"b","guid":"c5b9fbba-1ba5-4a75-89d7-9cfd6f8031d9","$type":"Unity.VisualScripting.ValueConnection"}],"$version":"A"}}'
    _objectReferences: []
