%YAML 1.1
%TAG !u! tag:unity3d.com,2011:
--- !u!114 &11400000
MonoBehaviour:
  m_ObjectHideFlags: 0
  m_CorrespondingSourceObject: {fileID: 0}
  m_PrefabInstance: {fileID: 0}
  m_PrefabAsset: {fileID: 0}
  m_GameObject: {fileID: 0}
  m_Enabled: 1
  m_EditorHideFlags: 0
  m_Script: {fileID: 11500000, guid: 95e66c6366d904e98bc83428217d4fd7, type: 3}
  m_Name: PlayerTankController
  m_EditorClassIdentifier: 
  _data:
    _json: '{"graph":{"variables":{"Kind":"Flow","collection":{"$content":[],"$version":"A"},"$version":"A"},"controlInputDefinitions":[],"controlOutputDefinitions":[],"valueInputDefinitions":[],"valueOutputDefinitions":[],"title":"PlayerTankController","summary":null,"pan":{"x":-1160.463,"y":180.9307},"zoom":0.45,"elements":[{"coroutine":false,"defaultValues":{},"position":{"x":-427.0,"y":-828.0},"guid":"ced9983c-12e0-4c24-ae87-73ead2f77493","$version":"A","$type":"Unity.VisualScripting.Update","$id":"9"},{"chainable":false,"member":{"name":"GetKey","parameterTypes":["UnityEngine.KeyCode"],"targetType":"UnityEngine.Input","targetTypeName":"UnityEngine.Input","$version":"A"},"defaultValues":{"%key":{"$content":"D","$type":"UnityEngine.KeyCode"}},"position":{"x":-429.0,"y":114.0},"guid":"18da8bfa-391a-48fc-8b04-49c20e6c4d06","$version":"A","$type":"Unity.VisualScripting.InvokeMember","$id":"11"},{"defaultValues":{},"position":{"x":-1200.0,"y":-819.0},"guid":"91b168b8-dd5f-4050-aaeb-c5fe06b00039","$version":"A","$type":"Unity.VisualScripting.If","$id":"14"},{"defaultValues":{},"position":{"x":-1333.0,"y":-515.0},"guid":"bf2f2794-8d8e-4130-93b1-a5b6607ac263","$version":"A","$type":"Unity.VisualScripting.GenericMultiply","$id":"16"},{"defaultValues":{},"position":{"x":-1133.0,"y":-417.0},"guid":"a9f9559f-a8cd-4324-bbb7-39c116aa94e8","$version":"A","$type":"Unity.VisualScripting.GenericMultiply","$id":"18"},{"specifyFallback":false,"kind":"Object","defaultValues":{"name":{"$content":"speed","$type":"System.String"},"object":null},"position":{"x":-1662.0,"y":-530.0},"guid":"5c5e37a7-f706-411a-9db0-3cf74a6ee13a","$version":"A","$type":"Unity.VisualScripting.GetVariable","$id":"20"},{"member":{"name":"deltaTime","parameterTypes":null,"targetType":"UnityEngine.Time","targetTypeName":"UnityEngine.Time","$version":"A"},"defaultValues":{},"position":{"x":-1670.0,"y":-384.0},"guid":"0d208381-f214-4d55-8ebf-f15332e8fb1d","$version":"A","$type":"Unity.VisualScripting.GetMember","$id":"22"},{"specifyFallback":false,"kind":"Object","defaultValues":{"name":{"$content":"angularSpeed","$type":"System.String"},"object":null},"position":{"x":-511.0,"y":-577.0},"guid":"03adca9e-e13a-46f2-96b8-a9c1f2ac782f","$version":"A","$type":"Unity.VisualScripting.GetVariable","$id":"25"},{"defaultValues":{},"position":{"x":99.0,"y":375.0},"guid":"2dc1321b-e0c9-4a53-a8a6-af9fbe192c3b","$version":"A","$type":"Unity.VisualScripting.GenericMultiply","$id":"27"},{"defaultValues":{},"position":{"x":2.0,"y":-818.0},"guid":"76fc2621-a47f-47e1-966b-e93c0df407b4","$version":"A","$type":"Unity.VisualScripting.If","$id":"29"},{"defaultValues":{},"position":{"x":-239.0,"y":-562.0},"guid":"e2c533bf-1ed6-4192-a097-c1ef1dc8918f","$version":"A","$type":"Unity.VisualScripting.GenericMultiply","$id":"31"},{"type":"System.Single","value":{"$content":-1.0,"$type":"System.Single"},"defaultValues":{},"position":{"x":-115.0,"y":-282.0},"guid":"cce0b594-c210-4dbf-ab6e-4c36816a2c1b","$version":"A","$type":"Unity.VisualScripting.Literal","$id":"33"},{"coroutine":false,"defaultValues":{},"position":{"x":-1656.0,"y":-812.0},"guid":"28a7b58a-6830-4f1e-a61b-d284965838e1","$version":"A","$type":"Unity.VisualScripting.Update","$id":"35"},{"chainable":false,"member":{"name":"Rotate","parameterTypes":["UnityEngine.Vector3"],"targetType":"UnityEngine.Transform","targetTypeName":"UnityEngine.Transform","$version":"A"},"defaultValues":{"target":null,"%eulers":{"x":0.0,"y":0.0,"z":0.0,"$type":"UnityEngine.Vector3"}},"position":{"x":375.0,"y":-802.0},"guid":"a5e158b5-9bc8-4b1a-a48c-05b540a878f6","$version":"A","$type":"Unity.VisualScripting.InvokeMember","$id":"37"},{"member":{"name":"up","parameterTypes":null,"targetType":"UnityEngine.Vector3","targetTypeName":"UnityEngine.Vector3","$version":"A"},"defaultValues":{},"position":{"x":-306.0,"y":-358.0},"guid":"6e30400d-eeb7-4dbe-986a-cfda6b07b208","$version":"A","$type":"Unity.VisualScripting.GetMember","$id":"40"},{"member":{"name":"deltaTime","parameterTypes":null,"targetType":"UnityEngine.Time","targetTypeName":"UnityEngine.Time","$version":"A"},"defaultValues":{},"position":{"x":-524.0,"y":-407.0},"guid":"857cda07-e1dc-46a6-9c4c-76a93b9426d4","$version":"A","$type":"Unity.VisualScripting.GetMember","$id":"43"},{"specifyFallback":false,"kind":"Object","defaultValues":{"name":{"$content":"angularSpeed","$type":"System.String"},"object":null},"position":{"x":-430.0,"y":262.0},"guid":"f4b1fc5f-9273-41b5-8f82-0c2cd16a06dc","$version":"A","$type":"Unity.VisualScripting.GetVariable","$id":"46"},{"chainable":false,"member":{"name":"GetKey","parameterTypes":["UnityEngine.KeyCode"],"targetType":"UnityEngine.Input","targetTypeName":"UnityEngine.Input","$version":"A"},"defaultValues":{"%key":{"$content":"W","$type":"UnityEngine.KeyCode"}},"position":{"x":-1661.0,"y":-678.0},"guid":"120e3a64-7fc9-4f1e-a1e3-cc6e54b37fad","$version":"A","$type":"Unity.VisualScripting.InvokeMember","$id":"48"},{"coroutine":false,"defaultValues":{},"position":{"x":-1664.0,"y":-100.0},"guid":"651c4f17-e245-4272-b8d6-1712ac5cba84","$version":"A","$type":"Unity.VisualScripting.Update","$id":"51"},{"member":{"name":"deltaTime","parameterTypes":null,"targetType":"UnityEngine.Time","targetTypeName":"UnityEngine.Time","$version":"A"},"defaultValues":{},"position":{"x":-438.0,"y":408.0},"guid":"e7681ae0-99a5-4376-9bb8-3fbe1dadb9a6","$version":"A","$type":"Unity.VisualScripting.GetMember","$id":"53"},{"defaultValues":{},"position":{"x":-1208.0,"y":-107.0},"guid":"3be9052b-6875-465d-959a-7f8525af5552","$version":"A","$type":"Unity.VisualScripting.If","$id":"56"},{"defaultValues":{},"position":{"x":-101.0,"y":277.0},"guid":"bd5dd178-283a-4c01-b037-653454c8542d","$version":"A","$type":"Unity.VisualScripting.GenericMultiply","$id":"58"},{"coroutine":false,"defaultValues":{},"position":{"x":-424.0,"y":-20.0},"guid":"96bf8ee3-133b-4764-8aa1-5aa70e1342dd","$version":"A","$type":"Unity.VisualScripting.Update","$id":"60"},{"chainable":false,"member":{"name":"GetKey","parameterTypes":["UnityEngine.KeyCode"],"targetType":"UnityEngine.Input","targetTypeName":"UnityEngine.Input","$version":"A"},"defaultValues":{"%key":{"$content":"A","$type":"UnityEngine.KeyCode"}},"position":{"x":-248.0,"y":-701.0},"guid":"612a2c7e-6c8e-40ab-b0d9-3783b561fab7","$version":"A","$type":"Unity.VisualScripting.InvokeMember","$id":"62"},{"defaultValues":{},"position":{"x":90.0,"y":-339.0},"guid":"2953fc13-62f1-4063-a011-4fb1d8763439","$version":"A","$type":"Unity.VisualScripting.GenericMultiply","$id":"65"},{"defaultValues":{},"position":{"x":32.0,"y":-27.0},"guid":"eecbb3e6-551e-47a5-949a-b4c0bcff46c4","$version":"A","$type":"Unity.VisualScripting.If","$id":"67"},{"defaultValues":{},"position":{"x":-73.0,"y":-471.0},"guid":"24a5b78a-8719-44d9-a4ac-2404f5a09b6c","$version":"A","$type":"Unity.VisualScripting.GenericMultiply","$id":"69"},{"chainable":false,"member":{"name":"Translate","parameterTypes":["UnityEngine.Vector3"],"targetType":"UnityEngine.Transform","targetTypeName":"UnityEngine.Transform","$version":"A"},"defaultValues":{"target":null,"%translation":{"x":0.0,"y":0.0,"z":0.0,"$type":"UnityEngine.Vector3"}},"position":{"x":-912.0,"y":-817.0},"guid":"4bc2e03b-b20e-451a-a63c-6bfadfaf2395","$version":"A","$type":"Unity.VisualScripting.InvokeMember","$id":"71"},{"chainable":false,"member":{"name":"Rotate","parameterTypes":["UnityEngine.Vector3"],"targetType":"UnityEngine.Transform","targetTypeName":"UnityEngine.Transform","$version":"A"},"defaultValues":{"target":null,"%eulers":{"x":0.0,"y":0.0,"z":0.0,"$type":"UnityEngine.Vector3"}},"position":{"x":336.0,"y":-30.0},"guid":"0cb80622-cbd7-4d36-a70d-bf02e86abcac","$version":"A","$type":"Unity.VisualScripting.InvokeMember","$id":"74"},{"member":{"name":"up","parameterTypes":null,"targetType":"UnityEngine.Vector3","targetTypeName":"UnityEngine.Vector3","$version":"A"},"defaultValues":{},"position":{"x":-159.0,"y":478.0},"guid":"159affd1-9ad5-429a-8ca8-4dfcfea09f48","$version":"A","$type":"Unity.VisualScripting.GetMember","$id":"77"},{"chainable":false,"member":{"name":"GetKey","parameterTypes":["UnityEngine.KeyCode"],"targetType":"UnityEngine.Input","targetTypeName":"UnityEngine.Input","$version":"A"},"defaultValues":{"%key":{"$content":"S","$type":"UnityEngine.KeyCode"}},"position":{"x":-1669.0,"y":34.0},"guid":"0bde7644-7894-46ea-8c0f-759cdca41480","$version":"A","$type":"Unity.VisualScripting.InvokeMember","$id":"80"},{"defaultValues":{},"position":{"x":-1341.0,"y":197.0},"guid":"354b9cc2-30cd-4765-9706-3b2f3f174f76","$version":"A","$type":"Unity.VisualScripting.GenericMultiply","$id":"83"},{"defaultValues":{},"position":{"x":-1141.0,"y":295.0},"guid":"0e90689a-2b4e-4ade-a2f4-bdffa53c9cc5","$version":"A","$type":"Unity.VisualScripting.GenericMultiply","$id":"85"},{"specifyFallback":false,"kind":"Object","defaultValues":{"name":{"$content":"speed","$type":"System.String"},"object":null},"position":{"x":-1670.0,"y":182.0},"guid":"602894d8-5eb3-4209-b821-f882dc32995b","$version":"A","$type":"Unity.VisualScripting.GetVariable","$id":"87"},{"member":{"name":"deltaTime","parameterTypes":null,"targetType":"UnityEngine.Time","targetTypeName":"UnityEngine.Time","$version":"A"},"defaultValues":{},"position":{"x":-1678.0,"y":328.0},"guid":"4852651e-d198-414b-b300-2e5dadae9eeb","$version":"A","$type":"Unity.VisualScripting.GetMember","$id":"89"},{"chainable":false,"member":{"name":"Translate","parameterTypes":["UnityEngine.Vector3"],"targetType":"UnityEngine.Transform","targetTypeName":"UnityEngine.Transform","$version":"A"},"defaultValues":{"target":null,"%translation":{"x":0.0,"y":0.0,"z":0.0,"$type":"UnityEngine.Vector3"}},"position":{"x":-920.0,"y":-105.0},"guid":"f0986b35-6311-42d4-8ca0-abf605a6755e","$version":"A","$type":"Unity.VisualScripting.InvokeMember","$id":"92"},{"member":{"name":"forward","parameterTypes":null,"targetType":"UnityEngine.Vector3","targetTypeName":"UnityEngine.Vector3","$version":"A"},"defaultValues":{},"position":{"x":-1391.0,"y":-314.0},"guid":"e83dac54-44ec-4d80-8ea1-633f83afdd5c","$version":"A","$type":"Unity.VisualScripting.GetMember","$id":"95"},{"member":{"name":"back","parameterTypes":null,"targetType":"UnityEngine.Vector3","targetTypeName":"UnityEngine.Vector3","$version":"A"},"defaultValues":{},"position":{"x":-1399.0,"y":398.0},"guid":"989ded37-44f1-42d7-a967-3c15faf111a9","$version":"A","$type":"Unity.VisualScripting.GetMember","$id":"98"},{"sourceUnit":{"$ref":"51"},"sourceKey":"trigger","destinationUnit":{"$ref":"56"},"destinationKey":"enter","guid":"9ba168a6-77fe-401f-8ac1-81151c438963","$type":"Unity.VisualScripting.ControlConnection"},{"sourceUnit":{"$ref":"56"},"sourceKey":"ifTrue","destinationUnit":{"$ref":"92"},"destinationKey":"enter","guid":"24acd404-ad4c-40be-beaf-0b1543f48e03","$type":"Unity.VisualScripting.ControlConnection"},{"sourceUnit":{"$ref":"35"},"sourceKey":"trigger","destinationUnit":{"$ref":"14"},"destinationKey":"enter","guid":"cbb78a1a-861a-4685-8423-9941948191bf","$type":"Unity.VisualScripting.ControlConnection"},{"sourceUnit":{"$ref":"29"},"sourceKey":"ifTrue","destinationUnit":{"$ref":"37"},"destinationKey":"enter","guid":"7869d469-e66c-4e44-97c2-1a2bc8f8554c","$type":"Unity.VisualScripting.ControlConnection"},{"sourceUnit":{"$ref":"67"},"sourceKey":"ifTrue","destinationUnit":{"$ref":"74"},"destinationKey":"enter","guid":"a12d8952-308a-4a21-8c36-bdb5574bd94e","$type":"Unity.VisualScripting.ControlConnection"},{"sourceUnit":{"$ref":"60"},"sourceKey":"trigger","destinationUnit":{"$ref":"67"},"destinationKey":"enter","guid":"b674005f-4c08-4d87-a9a4-eccf69aa9583","$type":"Unity.VisualScripting.ControlConnection"},{"sourceUnit":{"$ref":"9"},"sourceKey":"trigger","destinationUnit":{"$ref":"29"},"destinationKey":"enter","guid":"a4f2d59b-6ac6-4de1-983c-cf40aa6180cc","$type":"Unity.VisualScripting.ControlConnection"},{"sourceUnit":{"$ref":"14"},"sourceKey":"ifTrue","destinationUnit":{"$ref":"71"},"destinationKey":"enter","guid":"4dd15b43-9e69-4b6f-8300-11dccb336655","$type":"Unity.VisualScripting.ControlConnection"},{"sourceUnit":{"$ref":"87"},"sourceKey":"value","destinationUnit":{"$ref":"83"},"destinationKey":"a","guid":"be06387f-ba60-4788-ab6c-e4b86ae0b208","$type":"Unity.VisualScripting.ValueConnection"},{"sourceUnit":{"$ref":"89"},"sourceKey":"value","destinationUnit":{"$ref":"83"},"destinationKey":"b","guid":"32b84455-0c36-4f74-bf95-91e599b665b8","$type":"Unity.VisualScripting.ValueConnection"},{"sourceUnit":{"$ref":"62"},"sourceKey":"result","destinationUnit":{"$ref":"29"},"destinationKey":"condition","guid":"daabb9d9-af8c-41fc-a5bd-d3e86d8330cb","$type":"Unity.VisualScripting.ValueConnection"},{"sourceUnit":{"$ref":"83"},"sourceKey":"product","destinationUnit":{"$ref":"85"},"destinationKey":"a","guid":"a4e44418-3bf5-41bf-ad7e-5bb8feb9c94d","$type":"Unity.VisualScripting.ValueConnection"},{"sourceUnit":{"$ref":"11"},"sourceKey":"result","destinationUnit":{"$ref":"67"},"destinationKey":"condition","guid":"18d383a6-b99b-4a45-845d-302ece47ab20","$type":"Unity.VisualScripting.ValueConnection"},{"sourceUnit":{"$ref":"25"},"sourceKey":"value","destinationUnit":{"$ref":"31"},"destinationKey":"a","guid":"fc24f779-52b3-4983-bc1e-b23ce10cb242","$type":"Unity.VisualScripting.ValueConnection"},{"sourceUnit":{"$ref":"77"},"sourceKey":"value","destinationUnit":{"$ref":"27"},"destinationKey":"b","guid":"7f3fcbe4-1df7-4b13-a13e-52a0168d9920","$type":"Unity.VisualScripting.ValueConnection"},{"sourceUnit":{"$ref":"85"},"sourceKey":"product","destinationUnit":{"$ref":"92"},"destinationKey":"%translation","guid":"e22c69a5-445e-4cb8-a765-ccc6487ef517","$type":"Unity.VisualScripting.ValueConnection"},{"sourceUnit":{"$ref":"16"},"sourceKey":"product","destinationUnit":{"$ref":"18"},"destinationKey":"a","guid":"8af7d18f-174e-4fd9-b167-993e7b0a840c","$type":"Unity.VisualScripting.ValueConnection"},{"sourceUnit":{"$ref":"33"},"sourceKey":"output","destinationUnit":{"$ref":"65"},"destinationKey":"b","guid":"44264a99-f215-4f02-811b-6aa586aec16a","$type":"Unity.VisualScripting.ValueConnection"},{"sourceUnit":{"$ref":"27"},"sourceKey":"product","destinationUnit":{"$ref":"74"},"destinationKey":"%eulers","guid":"12d9a988-bb05-41f6-b6cb-d92ade62612e","$type":"Unity.VisualScripting.ValueConnection"},{"sourceUnit":{"$ref":"53"},"sourceKey":"value","destinationUnit":{"$ref":"58"},"destinationKey":"b","guid":"06f96728-4953-448c-816a-b4e9e7c01b07","$type":"Unity.VisualScripting.ValueConnection"},{"sourceUnit":{"$ref":"80"},"sourceKey":"result","destinationUnit":{"$ref":"56"},"destinationKey":"condition","guid":"0b4fa65c-6abc-4f2a-9e27-eff61fcd6ea0","$type":"Unity.VisualScripting.ValueConnection"},{"sourceUnit":{"$ref":"40"},"sourceKey":"value","destinationUnit":{"$ref":"69"},"destinationKey":"b","guid":"fbab6e1f-7a5e-40fd-83a4-a798a6ad2b4f","$type":"Unity.VisualScripting.ValueConnection"},{"sourceUnit":{"$ref":"20"},"sourceKey":"value","destinationUnit":{"$ref":"16"},"destinationKey":"a","guid":"9548e451-d4e6-4f23-b442-b676024ba96b","$type":"Unity.VisualScripting.ValueConnection"},{"sourceUnit":{"$ref":"18"},"sourceKey":"product","destinationUnit":{"$ref":"71"},"destinationKey":"%translation","guid":"76ab8890-6604-418f-8138-ba9108aadd9f","$type":"Unity.VisualScripting.ValueConnection"},{"sourceUnit":{"$ref":"95"},"sourceKey":"value","destinationUnit":{"$ref":"18"},"destinationKey":"b","guid":"d11c832e-f786-4ded-92b9-2cb2616c415c","$type":"Unity.VisualScripting.ValueConnection"},{"sourceUnit":{"$ref":"22"},"sourceKey":"value","destinationUnit":{"$ref":"16"},"destinationKey":"b","guid":"64ee19ce-7843-48d7-990d-fcff94ffa685","$type":"Unity.VisualScripting.ValueConnection"},{"sourceUnit":{"$ref":"48"},"sourceKey":"result","destinationUnit":{"$ref":"14"},"destinationKey":"condition","guid":"23499530-baa0-48eb-9151-f5349b087659","$type":"Unity.VisualScripting.ValueConnection"},{"sourceUnit":{"$ref":"43"},"sourceKey":"value","destinationUnit":{"$ref":"31"},"destinationKey":"b","guid":"3161f33b-0338-4344-b0cd-d597b0861abb","$type":"Unity.VisualScripting.ValueConnection"},{"sourceUnit":{"$ref":"58"},"sourceKey":"product","destinationUnit":{"$ref":"27"},"destinationKey":"a","guid":"b03f860a-3bee-4d04-bd78-21eea158f3f3","$type":"Unity.VisualScripting.ValueConnection"},{"sourceUnit":{"$ref":"69"},"sourceKey":"product","destinationUnit":{"$ref":"65"},"destinationKey":"a","guid":"21d97dd0-9168-4e1e-a2b0-f781b239540c","$type":"Unity.VisualScripting.ValueConnection"},{"sourceUnit":{"$ref":"31"},"sourceKey":"product","destinationUnit":{"$ref":"69"},"destinationKey":"a","guid":"5d90f28f-6995-4f23-a3dd-4c9313aa5561","$type":"Unity.VisualScripting.ValueConnection"},{"sourceUnit":{"$ref":"46"},"sourceKey":"value","destinationUnit":{"$ref":"58"},"destinationKey":"a","guid":"d6364e17-6c81-4c38-9b31-eb129d8c8a8b","$type":"Unity.VisualScripting.ValueConnection"},{"sourceUnit":{"$ref":"65"},"sourceKey":"product","destinationUnit":{"$ref":"37"},"destinationKey":"%eulers","guid":"b4a9f087-e88c-4019-bbc4-33c8bf7e1462","$type":"Unity.VisualScripting.ValueConnection"},{"sourceUnit":{"$ref":"98"},"sourceKey":"value","destinationUnit":{"$ref":"85"},"destinationKey":"b","guid":"b631404f-63cf-42dc-9be5-925bd424e8af","$type":"Unity.VisualScripting.ValueConnection"}],"$version":"A"}}'
    _objectReferences: []
